%YAML 1.1
%TAG !u! tag:unity3d.com,2011:
--- !u!114 &11400000
MonoBehaviour:
  m_ObjectHideFlags: 0
  m_CorrespondingSourceObject: {fileID: 0}
  m_PrefabInstance: {fileID: 0}
  m_PrefabAsset: {fileID: 0}
  m_GameObject: {fileID: 0}
  m_Enabled: 1
  m_EditorHideFlags: 0
  m_Script: {fileID: 11500000, guid: 9f542a721db854044afe77248d66abb1, type: 3}
  m_Name: Player 1
  m_EditorClassIdentifier: 
  forwardPositive: 119
  forwardNegative: 115
  rightPositive: 100
  rightNegative: 97
  interact: 102
  fire: 99
